{
    "I18N.LANGUAGE": "Deutsch",
    "I18N.MAINTAINERS": ["Hydroxi"," lutece", "henry4k"],

    "Activate": "Aktivieren",
    "Author": "Autor",
    "Cancel": "Abbrechen",
    "Character": "Charakter",
    "Configure": "Konfigurieren",
    "Close": "Schließen",
    "Degrees": "Grad",
    "Default": "Standard",
    "Delete": "Löschen",
    "Documentation": "Dokumentation",
    "Duplicate": "Duplizieren",
    "Error": "Fehler",
    "GridUnits": "Raster Einheit",
    "Install": "Installieren",
    "Elevation": "Höhe",
    "Foundry Virtual Tabletop": "Foundry Virtual Tabletop",
    "File Path": "Dateipfad",
    "Height": "Höhe",
    "Hidden": "Versteckt",
    "Name": " Name",
    "No": "Nein",
    "Notes": "Notizen",
    "Preload": "Vorladen",
    "Token": "Spielfigur",
    "Path": "Pfad",
    "Packs": "Pakete",
    "Permissions": "Rechte",
    "Pixels": "Pixel",
    "Ratio": "Verhältnis",
    "Rotation": "Drehung",
    "Save Changes": "Änderungen speichern",
    "Scale": "Maßstab",
    "Sheet": "Bogen",
    "System": "System",
    "Type": "Typ",
    "Uninstall": "Deinstallieren",
    "Update": "Aktualisieren",
    "URL": "URL",
    "Warning": "Warnung",
    "Width": "Breite",
    "XCoord": "X-Koordinate",
    "YCoord": "Y-Koordinate",
    "Yes": "Ja",

    "ACTOR.Title": "Charakterverzeichnis",
    "ACTOR.Create": "Charakter erstellen",
    "ACTOR.Search": "Charakter suchen",

    "CHAT.Clear": "Nachrichten löschen",
    "CHAT.Export": "Nachrichten exportieren",
    "CHAT.FlushTitle": "Nachrichten löschen",
    "CHAT.FlushWarning": "<h3>Bist du sicher?</h3><p>Alle Nachrichten werden gelöscht.</p>",
    "CHAT.Title": "Nachrichten",
    "CHAT.To": "An",
    "CHAT.RollBlind": "Verdeckter SL-Wurf",
    "CHAT.RollDefault": "Standard Würfel-Modus",
    "CHAT.RollPublic": "Öffentlicher Wurf",
    "CHAT.RollPrivate": "Privater SL-Wurf",
    "CHAT.RollSelf": "Privater Wurf",
    "CHAT.RollTables": "Würfeltabellen",

    "COMBAT.Begin": "Starten",
    "COMBAT.Create": "Begegnung erstellen",
    "COMBAT.Delete": "Begegnung löschen",
    "COMBAT.Encounter": "Begegnung",
    "COMBAT.EncounterPrevious": "Vorherige Begegnung",
    "COMBAT.EncounterNext": "Nächste Begegnung",
    "COMBAT.End": "Beenden",
    "COMBAT.InitiativeRoll": "Initiative würfeln",
    "COMBAT.InitiativeReset": "Initiative zurücksetzen",
    "COMBAT.None": "Keine Teilnehmer",
    "COMBAT.NotStarted": "Nicht gestartet",
    "COMBAT.Resource": "Verfolgte Ressource",
    "COMBAT.ResourceHint": "Wähle ein Attribut, das für jeden Teilnehmer verfolgt werden soll.",
    "COMBAT.Round": "Runde",
    "COMBAT.RoundPrev": "Vorherige Runde",
    "COMBAT.RoundNext": "Nächste Runde",
    "COMBAT.RollNPC": "Würfle Initiative für NSCs",
    "COMBAT.RollAll": "Würfle Initiative für alle",
    "COMBAT.Settings": "Kampf-Einstellungen",
    "COMBAT.SettingsSave": "Speichere Kampf-Einstellungen",
    "COMBAT.SkipDefeated": "Besiegte überspringen?",
    "COMBAT.SkipDefeatedHint": "Automatisch besiegte Charaktere überspringen?",
    "COMBAT.ToggleVis": "Sichtbarkeit umschalten",
    "COMBAT.ToggleDead": "Besiegte markieren",
    "COMBAT.TurnEnd": "Zug beenden",
    "COMBAT.TurnNext": "Nächster Zug",
    "COMBAT.TurnPrev": "Vorheriger Zug",

    "COMPENDIUM.Name": "Kompendium-Name",
    "COMPENDIUM.Create": "Kompendium erstellen",
    "COMPENDIUM.CreateHint": "Erstelle ein neues Kompendium-Paket in deiner aktuellen Welt.",
    "COMPENDIUM.Delete": "Kompendium löschen",
    "COMPENDIUM.Duplicate": "Dupliziere Kompendium",
    "COMPENDIUM.DuplicateTitle": "Neuer Name",
    "COMPENDIUM.DuplicateHint": "Du kannst dieses Kompendium in deine Welt kopieren, um es problemlos ändern zu können.",
    "COMPENDIUM.Type": "Entitätstyp",
    "COMPENDIUM.TypeHint": "Jedes Kompendium-Paket enthält einen speziellen Entitätstyp.",
    "COMPENDIUM.ToggleVisibility": "Sichtbarkeit umschalten",
    "COMPENDIUM.ToggleLocked": "Schreibschutz umschalten",
    "COMPENDIUM.ToggleLockedWarning": "Du versuchst den Schreibschutz eines Kompendiums zu lösen, welches nicht zu deiner Welt gehört. Alle deine Änderungen können verloren gehen sobald das entsprechende System oder Modul aktualisiert wird. Vielleicht solltest du das Kompendium stattdessen in deine Welt kopieren. Möchtest du fortfahren?",

    "CONTROLS.GroupBasic": "Basissteuerung",
    "CONTROLS.BasicSelect": "Spielfiguren auswählen",
  "CONTROLS.TargetSelect": "Ziele auswählen",
    "CONTROLS.BasicMeasure": "Entfernung messen",
    "CONTROLS.GroupMeasure": "Messwerkzeuge",
    "CONTROLS.MeasureCircle": "Kreis-Schablone",
    "CONTROLS.MeasureCone": "Kegel-Schablone",
    "CONTROLS.MeasureRect": "Rechteck-Schablone",
    "CONTROLS.MeasureRay": "Strahl-Schablone",
    "CONTROLS.MeasureClear": "Schablonen entfernen",
    "CONTROLS.GroupTile": "Kachel-Steuerung",
    "CONTROLS.TileSelect": "Kacheln auswählen",
    "CONTROLS.TilePlace": "Kachel platzieren",
    "CONTROLS.GroupDrawing": "Zeichenwerkzeuge",
    "CONTROLS.DrawingSelect": "Zeichnungen auswählen",
    "CONTROLS.DrawingRect": "Rechteck zeichnen",
    "CONTROLS.DrawingEllipse": "Kreis zeichnen",
    "CONTROLS.DrawingPoly": "Polygon zeichnen",
    "CONTROLS.DrawingFree": "Freihand zeichnen",
    "CONTROLS.DrawingText": "Text zeichnen",
    "CONTROLS.DrawingClear": "Zeichnungen löschen",
    "CONTROLS.DrawingConfig": "Zeichnung anpassen",
    "CONTROLS.GroupWall": "Wandwerkzeug",
    "CONTROLS.WallDraw": "Wände zeichnen",
    "CONTROLS.WallInvisible": "Unsichbare Wände",
    "CONTROLS.WallTerrain": "Terrain-Wände",
    "CONTROLS.WallEthereal": "Ätherische Wände",
    "CONTROLS.WallDoors": "Türen zeichnen",
    "CONTROLS.WallSecret": "Geheimtüren",
    "CONTROLS.WallClone": "Wände klonen",
    "CONTROLS.WallClear": "Wände löschen",
    "CONTROLS.GroupLighting": "Beleuchtungswerkzeuge",
    "CONTROLS.LightDraw": "Lichtquelle platzieren",
    "CONTROLS.LightClear": "Lichter löschen",
    "CONTROLS.LightReset": "Kriegsnebel zurücksetzen",
    "CONTROLS.LightDay": "Zum Tag überblenden",
    "CONTROLS.LightNight": "Zur Nacht überblenden",
    "CONTROLS.FOWResetTitle": "Aufgedeckten Bereich wieder verstecken?",
    "CONTROLS.FOWResetDesc": "Diese Option setzt den Nebel des Krieges in dieser Szene für alle Spieler zurück.",
    "CONTROLS.GroupSound": "Umgebungsgeräusche",
    "CONTROLS.SoundDraw": "Umgebungsgeräusch platzieren",
    "CONTROLS.SoundClear": "Geräusche löschen",
    "CONTROLS.GroupNotes": "Gruppen-Notizen",
    "CONTROLS.NoteSelect": "Notizen auswählen",
    "CONTROLS.NoteToggle": "Notizen-Anzeige umschalten",
    "CONTROLS.NoteClear": "Notizen entfernen",
    "CONTROLS.HeaderObjects": "Platzierbare Objekte",
    "CONTROLS.HeaderCanvas": "Leinwand-Objekte",
    "CONTROLS.HeaderGame": "Spielsteuerung",
    "CONTROLS.HeaderToken": "Figur-Steuerung",
    "CONTROLS.HeaderWalls": "Wand-Ebene (SL)",
    "CONTROLS.GameMenu": "Hauptmenü umschalten",
    "CONTROLS.GameClose": "Offene Fenster schließen",
    "CONTROLS.GamePause": "Spiel pausieren/weiterlaufen lassen (SL)",
    "CONTROLS.CanvasCancel": "Anstehende Bewegung abbrechen",
    "CONTROLS.CanvasConfigure": "Leinwand-Objekt Konfigurieren (SL)",
    "CONTROLS.CanvasCopy": "Leinwand-Objekte kopieren (SL)",
    "CONTROLS.CanvasDelete": "Ausgewählte Elemente löschen (SL)",
    "CONTROLS.CanvasMeasure": "Entfernung mit Lineal messen",
    "CONTROLS.CanvasWaypoint": "Messpunkt setzen",
    "CONTROLS.CanvasMove": "Objekt bewegen",
    "CONTROLS.CanvasNoSnap": "Magnetische Platzierung ausschalten",
    "CONTROLS.CanvasPan": "Leinwand schwenken",
    "CONTROLS.CanvasPaste": "Leinwand-Elemente einfügen (SL)",
    "CONTROLS.CanvasReset": "Ansicht zurücksetzen",
    "CONTROLS.CanvasUndo": "Leinwand-Aktion zurücksetzen",
    "CONTROLS.CanvasZoom": "Leinwand vergrößern/verkleinern",
    "CONTROLS.LeftClick": "Linksklick",
    "CONTROLS.LeftClick2": "Doppelklick",
    "CONTROLS.LeftDrag": "mit linker Maustaste ziehen",
    "CONTROLS.RightDrag": "mit rechter Maustaste ziehen",
    "CONTROLS.MouseWheel": "Mausrad",
    "CONTROLS.DragDrop": "Drag and Drop",
    "CONTROLS.Instructions": "Diese Eingabemaske beschreibt typische Tastatur- und Mausbefehle, mit denen verschiedene Aspekte der Foundry Virtual Tabletop-Umgebung gesteuert werden.",
    "CONTROLS.RightClick": "Rechtsklick",
    "CONTROLS.Title": "Spielsteuerungsübersicht",
    "CONTROLS.TokenCycle": "Steuerbare Figuren durchschalten",
    "CONTROLS.TokenFace": "Blickrichtung",
    "CONTROLS.TokenHUD": "Spielfigur HUD",
    "CONTROLS.TokenHighlight": "Figuren markieren",
    "CONTROLS.TokenPlace": "Figur platzieren",
    "CONTROLS.TokenPlaceHidden": "Versteckte Figur platzieren (SL)",
    "CONTROLS.TokenKeyMove": "Keyboard-Bewegung",
    "CONTROLS.TokenDiagMove": "Diagonale Bewegung",
    "CONTROLS.TokenMoveMeasure": "Entlang des gemessenen Pfades bewegen",
    "CONTROLS.TokenRotateFast": "Figur rotieren (schnell)",
    "CONTROLS.TokenRotateSlow": "Figur rotieren (langsam)",
    "CONTROLS.TokenSet": "Figur Steuerung anpassen",
    "CONTROLS.TokenSheet": "Charakterbogen anzeigen",
    "CONTROLS.TokenWhileMeasure": "während Entfernung gemessen wird",
    "CONTROLS.WallChain": "Ketten-Wandplatzierung",
    "CONTROLS.WallSelectChain": "Verkettete Segmente auswählen",

    "ENTITY.Actor": "Charakter",
    "ENTITY.Item": "Gegenstand",
    "ENTITY.Scene": "Szene",
    "ENTITY.JournalEntry": "Notizbucheintrag",
    "ENTITY.Playlist": "Audio Wiedergabeliste",
    "ENTITY.Combat": "Kampfbegegnung",
    "ENTITY.ChatMessage": "Chat-Nachricht",
    "ENTITY.CreateNew": "Neuen Eintrag erstellen",
    "ENTITY.TypeHint": "Wähle die Art von Entität aus, die du erstellen möchtest",

    "EULA.Acknowledge": "Einverständniserklärung",
    "EULA.Agree": "Zustimmen",
    "EULA.AgreeHint": "Ich stimme diesen Bedingungen zu",
    "EULA.Decline": "Ablehnen",

    "GAME.Paused": "Spiel pausiert",

    "INVITATIONS.Copied": "Einladungslink in die Zwischenablage kopiert",
    "INVITATIONS.Instructions": "Teile den untenstehenden Link mit Nutzern, die du zu deinem Spiel einladen möchtest. Der lokale Einladungslink ist für Nutzer gedacht, die sich in deinem Netzwerk befinden, während der Internetlink über das Internet auf den eingestellten Port verbindet.",
    "INVITATIONS.Internet": "Internet",
    "INVITATIONS.Local": "Lokales Netzwerk",
    "INVITATIONS.Title": "Einladungslinks",

    "ITEM.Create": "Gegenstand erstellen",
    "ITEM.Delete": "Gegenstand löschen",
    "ITEM.Search": "Gegenstände durchsuchen",
    "ITEM.ViewArt": "Bild des Gegenstands ansehen",

    "HUD.ToggleVis": "Sichtbarkeitszustand umschalten",
    "HUD.ToggleLock": "Sperrzustand umschalten",
    "HUD.ToFront": "In den Vordergrund bringen",
    "HUD.ToBack": "In den Hintergrund stellen",

    "JOURNAL.Search": "Notizbucheinträge durchsuchen",
    "JOURNAL.Create": "Eintrag erstellen",

    "LIGHT.DarknessThreshold": "Dunkelheitsschwellwert",
    "LIGHT.DarknessThresholdHint": "Bei gesetztem Schwellwert, ist dieses Licht nur sichtbar wenn die Dunkelheit der Szene diesen übersteigt.",
    "LIGHT.LightColor": "Lichtfarbe",
    "LIGHT.LightOpacity": "Licht Sichtbarkeit",

    "MACRO.Create": "Makro erstellen",
    "MACRO.Delete": "Makro löschen",
    "MACRO.DeleteConfirm": "<p><strong>Bist du sicher?</strong> Dieses Makro wird dauerhaft gelöscht.</p>",
    "MACRO.Search": "Makros durchsuchen",

    "MENU.Reload": "Anwendung neu laden",
    "MENU.Logout": "Abmelden",
    "MENU.Players": "Spieler konfigurieren",
    "MENU.Setup": "Zum Setup",

    "MODMANAGE.Title": "Modul-Management",
    "MODMANAGE.Instructions": "Benutze diese Maske um zu konfigurieren, welche Module in deiner aktuellen Welt aktiv sind. Änderungen an aktiven Modulen führen dazu, dass die aktuelle Sitzung neu geladen wird.",
    "MODMANAGE.Submit": "Module aktualisieren",

    "PLAYERS.Title": "Spieler",
    "PLAYERS.CharSelect": "Charakter auswählen",
    "PLAYERS.CharRelease": "Charakter freigeben",
    "PLAYERS.ConfigTitle": "Spieler Konfiguration",
    "PLAYERS.PlayerColor": "Spielerfarbe",
    "PLAYERS.PlayerAvatar": "Spieler-Avatar",
    "PLAYERS.PullToScene": "In Szene bewegen",
    "PLAYERS.SaveConfig": "Konfiguration speichern",
    "PLAYERS.ViewAvatar": "Spieler-Avatar ansehen",

    "PLAYLIST.Create": "Wiedergabeliste erstellen",
    "PLAYLIST.Delete": "Wiedergabeliste löschen",
    "PLAYLIST.Edit": "Wiedergabeliste bearbeiten",
    "PLAYLIST.GlobalVolume": "Globale Lautstärkeeinstellungen",
    "PLAYLIST.ModeDisabled": "Manuelle Wiedergabe",
    "PLAYLIST.ModeSequential": "Sequentielle Wiedergabe",
    "PLAYLIST.ModeShuffle": "Zufallswiedergabe",
    "PLAYLIST.ModeSimultaneous": "Gleichzeitige Wiedergabe",
    "PLAYLIST.Play": "Wiedergabeliste apspielen",
    "PLAYLIST.SoundAdd": "Geräusch hinzufügen",
    "PLAYLIST.SoundEdit": "Geräusch bearbeiten",
    "PLAYLIST.SoundDelete": "Geräusch löschen",
    "PLAYLIST.SoundLoop": "Geräusch wiederholen",
    "PLAYLIST.SoundPlay": "Geräusch abspielen",
    "PLAYLIST.SoundPreload": "Geräusch vorladen",
    "PLAYLIST.SoundVolume": "Geräusch-Lautstärke",
    "PLAYLIST.SoundStop": "Geräusch anhalten",
    "PLAYLIST.Stop": "Wiedergabeliste anhalten",
    "PLAYLIST.VolPlaylist": "Wiedergabelisten",
    "PLAYLIST.VolAmbient": "Umgebungsgeräusche",
    "PLAYLIST.VolInterface": "Benutzeroberfläche",

    "SCENES.Access" : "Zugang",
    "SCENES.AccessHint" : "Stelle ein, wer die Szene bearbeiten kann und ob sie in der Seitenleiste angezeigt wird.",
    "SCENES.Accessibility" : "Zugang",
    "SCENES.AccessibilityGM" : "Nur Spielleiter",
    "SCENES.AccessibilityAll" : "Alle Spieler",
    "SCENES.Activate": "Aktivieren",
    "SCENES.AmbienceAtmosphere" : "Atmosphäre",
    "SCENES.Appearance": "Erscheinung",
    "SCENES.AppearanceHint": "Stelle das Hintergrundbild und die Dimensionen der primären Karte der Szene ein.",
    "SCENES.AudioPlaylist": "Audio-Wiedergabeliste",
    "SCENES.AudioPlaylistHint": "Eine Wiedergabeliste welche automatisch spielt, sobald die Szene betreten wird.",
    "SCENES.BackgroundColor" : "Hintergrundfarbe",
    "SCENES.BackgroundImage" : "Hintergrundbild",
    "SCENES.BackgroundScale": "Hintergrundbild-Skalierung",
    "SCENES.Configure": "Konfigurieren",
    "SCENES.Darkness": "Dunkelheit",
    "SCENES.DarknessHint": "Stelle einen Dunkelheitseffekt ein, mit welchem Nacht oder Dämmerung simuliert werden.",
    "SCENES.FogExplore" : "Nebel-Erkundung",
    "SCENES.FogExploreHint" : "Verfolge Entdeckungsfortschritt in dieser Szene, wodurch der Kriegsnebel entfernt wird.",
    "SCENES.GlobalIllum" : "Globale Beleuchtung",
    "SCENES.GlobalIllumHint" : "Beleute alle Bereiche der Szene, welche von kontrollierten Figuren gesehen werden können.",
    "SCENES.GridColor" : "Gitterfarbe",
    "SCENES.GridConfig" : "Gitter",
    "SCENES.GridConfigHint" : "Stelle die Dimensionen des Gitters ein, die genutzt werden, um Distanzen in dieser Szene zu messen.",
    "SCENES.GridConfigTool": "Gitter-Konfigurations-Werkzeug",
    "SCENES.GridDist" : "Gitter-Abstand",
    "SCENES.GridUnits" : "Gitter-Einheiten",
    "SCENES.GridOpacity" : "Gitter-Transparenz",
    "SCENES.GridType" : "Gitter-Typ",
    "SCENES.GridGridless": "Gitterlos",
    "SCENES.GridSquare": "Quadratisch",
    "SCENES.GridHexOddR": "Hexagonal Reihen - Ungerade",
    "SCENES.GridHexEvenR": "Hexagonal Reihen - Gerade",
    "SCENES.GridHexOddQ": "Hexagonal Spalten - Ungerade",
    "SCENES.GridHexEvenQ": "Hexagonal Spalten - Gerade",
    "SCENES.GridSize" : "Gitter-Größe",
    "SCENES.GridPosition": "Gitter-Verschiebung",
    "SCENES.InitialView": "Initiale Ansicht",
    "SCENES.InitialViewButton": "Aktuelle Ansicht speichern",
    "SCENES.InitialViewHint": "Setze eine Standard-Kameraposition, welche beim erstmaligen Betreten der Szene benutzt wird.",
    "SCENES.Height" : "Höhe",
    "SCENES.LightHeader" : "Beleuchtung und Sicht",
    "SCENES.NavName" : "Navigations-Name",
    "SCENES.NavNameHint" : "Eine alternative Szenenbezeichnung, welche den Spielern in der Navigationsleiste angezeigt wird.",
    "SCENES.Notes": "Szenen-Notizen",
    "SCENES.Pixels" : "Pixel",
    "SCENES.Preload": "Szene vorladen",
    "SCENES.SceneName": "Szenenname",
    "SCENES.JournalNotes": "Notizbucheintrag",
    "SCENES.JournalNotesHint": "Ein Notizbucheintrag für den Spielleiter, der Informationen zu dieser Szene beinhaltet.",
    "SCENES.ShowNav" : "In Navigation anzeigen",
    "SCENES.ShiftHorz" : "Horizontal verschieben",
    "SCENES.ShiftVert" : "Vertikal verschieben",
    "SCENES.TokenVision" : "Figur-Sicht",
    "SCENES.TokenVisionHint" : "Sichtbarkeit in dieser Szene basierend auf kontrollierten Figuren und deren Sicht einschränken.",
    "SCENES.ToggleNav": "Navigation aus",
    "SCENES.Units" : "Einheiten",
    "SCENES.Width" : "Breite",
    "SCENES.WeatherEffect" : "Wettereffekt",
    "SCENES.WeatherEffectHint" : "Stelle die Wettereffekte ein, die für die aktuelle Szene gelten.",

    "SETTINGS.Configure": "Einstellungen anpassen",
    "SETTINGS.ConfigureAV" : "Audio/Video anpassen",
    "SETTINGS.Controls": "Steuerungsübersicht",
    "SETTINGS.Docs": "Dokumentation ansehen",
    "SETTINGS.Invite": "Einladungslinks",
    "SETTINGS.Manage": "Module verwalten",
    "SETTINGS.Title": "Spieleinstellungen anpassen",
    "SETTINGS.Update": "Software aktualisieren",
    "SETTINGS.Logout": "Abmelden",
    "SETTINGS.Players": "Spieler anpassen",
    "SETTINGS.Reset": "Auf Standardwerte zurücksetzen",
    "SETTINGS.Save": "Änderungen speichern",
    "SETTINGS.Setup": "Zum Setup",
    "SETTINGS.SettingsHeader": "Spieleinstellungen",
    "SETTINGS.DocsHeader": "Dokumentation",
    "SETTINGS.InviteHeader": "Spiel-Einladungslinks",
    "SETTINGS.Wiki": "Community-Wiki",
    "SETTINGS.LangN": "Sprache",
    "SETTINGS.LangL": "Ändere die Anzeigesprache für Foundry Virtual Tabletop.",
    "SETTINGS.CBubN": "Sprechblasen aktivieren",
    "SETTINGS.CBubL": "Stelle ein, ob Sprechblasen für In-Charakter- und Emote-Nachrichten oberhalb der Figuren angezeigt werden.",
    "SETTINGS.CBubPN": "Schwenke zu Sprechblasen",
    "SETTINGS.CBubPL": "Stelle ein, ob die Kamera automatisch zu einer Figur schwenkt, wenn bei dieser eine Sprechblase erscheint.",
    "SETTINGS.SoftSN": "Weiche Schatten aktivieren",
    "SETTINGS.SoftSL": "Aktiviere weiche Schatten für eine schönere dynamische Beleuchtung oder deaktiviere sie für eine verbesserte Leistung auf Systemen mit älterer Hardware.",
    "SETTINGS.TabCore": "Grundeinstellungen",
    "SETTINGS.TabModule": "Moduleinstellungen",
    "SETTINGS.TabSystem": "Systemeinstellungen",
    "SETTINGS.NoneCore": "Es wurden keine Grundeinstellungen erfasst.",
    "SETTINGS.NoneModule": "Es wurden keine Moduleinstellungen erfasst",
    "SETTINGS.NoneSystem": "Es wurden keine Systemeinstellungen erfasst.",

    "SETUP.SettingsHeader": "Software Konfiguration",
    "SETUP.UpdateHeader": "Software Aktualisierung",
    "SETUP.Configuration": "Konfiguration",
    "SETUP.Modules": "Add-on Module",

    "SETUP.Systems": "Spielsysteme",
    "SETUP.Title": "Einstellungen und Setup",
    "SETUP.Update": "Software aktualisieren",
    "SETUP.UpdateAll": "Alle aktualisieren",
    "SETUP.UpdateCheck": "Aktualisieren",
    "SETUP.UpdateCheckFor": "Nach Aktualisierung suchen",
    "SETUP.UpdateKey": "Aktualiserungsschlüssel",
    "SETUP.UpdateKeyHint": "Gib einen Aktualiserungsschlüssel ein, um fortzufahren.",
    "SETUP.Uninstall": "Deinstallieren",
    "SETUP.WorldCreate": "Welt erstellen",
    "SETUP.WorldEdit": "Welt editieren",
    "SETUP.WorldLaunch": "Welt starten",
    "SETUP.Worlds": "Spielwelten",
    "SETUP.RequireUpdate": "Benötigt Aktualisierung",
    "SETUP.RequireSystem": "Benötigt Systemaktualisierung",
    "SETUP.RequireDep": "Benötigt Abhängigkeit",
    "SETUP.RequireCore": "Benötigt Softwareaktualisierung",

    "SETUP.ManifestURL": "Manifest-URL",
    "SETUP.InstallHint": "Du kannst ein Paket installieren indem du den Link zu dessen JSON-Manifest eingibst.",
    "SETUP.InstallModule": "Modul installieren",
    "SETUP.InstallSystem": "System installieren",
    "SETUP.InstallSuccess": "erfolgreich installiert",
    "SETUP.InstallFailure": "Installation fehlgeschlagen. Bitte schau dir die Fehlernachrichten in der Konsole für weitere Details an.",
    "SETUP.UninstallSuccess": "erfolgreich deinstalliert",
    "SETUP.UninstallFailure": "Deinstallation fehlgeschlagen. Bitte schau dir die Fehlernachrichten in der Konsole für weitere Details an.",
    "SETUP.UpdateSuccess": "erfolgreich aktualisiert",
    "SETUP.UpdateFailure": "Aktualisierung fehlgeschlagen",

    "SETUP.AdminAccess": "Foundry Virtual Tabletop &bull; Administrator Zugang",
    "SETUP.AdminKeyLabel": "Administrator Zugangsschlüssel",
    "SETUP.AdminKeyHint": "Du kannst einen speziellen Schlüssel festlegen, welcher benötigt wird um auf diese Konfigurationsseite zuzugreifen.",
    "SETUP.AdminLogout": "Admin Abmelden",
    "SETUP.AWSLabel": "AWS-Konfigurationspfad",
    "SETUP.AWSHint": "Du kannst eine AWS-Konfigurationsdatei für die S3 Integration festlegen. Der Pfad ist absolut oder relativ zum Konfigurations-Unterverzeichnis der Nutzerdaten.",
    "SETUP.PortLabel": "Port",
    "SETUP.PortHint": "Du kannst festlegen welchen Port Foundry Virtual Tabletop für TCP Verbindungen nutzt. Zudem kannst du Universal Plug and Play (UPnP) verwenden.",
    "SETUP.UPNPLabel": "UPnP nutzen?",
    "SETUP.DataPathLabel": "Nutzerdaten-Pfad",
    "SETUP.DataPathHint": "Lege fest an welchem Ort deine Nutzerdaten einschließlich Welten, Systemen und Modulen gespeichert werden.",
    "SETUP.WorldLabel": "Standard Welt",
    "SETUP.WorldHint": "Du kannst eine deiner Welten automatisch mit der Software starten lassen.",
    "SETUP.SSLCertLabel": "SSL-Zertifikat",
    "SETUP.SSLKeyLabel": "SSL Privater Schlüssel",
    "SETUP.SSLHint": "Du kannst den Server mit Secure-Socket-Layer (SSL) Verschlüsslung nutzen indem du die Pfade zum Zertifikat und den Schlüsseln hinterlegst.",

    "SHEETS.EntitySheetHint": "Überschreiben, welche Bogen-Art du für diese spezielle Entität benutzen möchtest.",
    "SHEETS.TypeSheetHint": "Die Standard-Bogen-Art für diesen Entitätstyp festlegen (nur SL).",
    "SHEETS.Save": "Bogen-Konfiguration speichern",

    "SIDEBAR.CharArt": "Charakter Bild anzeigen",
    "SIDEBAR.CollapseToggle": "Ein-/Ausklappen",
    "SIDEBAR.Delete": "Löschen",
    "SIDEBAR.DeleteConfirm": "<h3>Bist du sicher?</h3><p>Diese Entität wird <strong>dauerhaft gelöscht</strong>.</p>",
    "SIDEBAR.Duplicate": "Duplizieren",
    "SIDEBAR.Export": "Daten exportieren",

    "FOLDER.Clear": "Ordner leeren",
    "FOLDER.Color": "Ordnerfarbe",
    "FOLDER.Create": "Ordner erstellen",
    "FOLDER.Collapse": "Alle Ordner einklappen",
    "FOLDER.Delete": "Alle löschen",
    "FOLDER.DeleteConfirm": "<h3>Bist du sicher?</h3><p>Dieser Ordner und seine Inhalte werden <strong>dauerhaft gelöscht</strong> und können nicht wieder hergestellt werden.</p>",
    "FOLDER.Edit": "Ordner bearbeiten",
    "FOLDER.Name": "Ordnername",
    "FOLDER.Remove": "Ordner entfernen",
    "FOLDER.RemoveConfirm": "<h3>Bist du sicher?</h3><p>Dieser Ordner wird gelöscht und seine Inhalte werden in einen Überordner verschoben.</p>",
    "FOLDER.Update": "Order aktualisieren",

    "PERMISSION.AllPlayers": "Alle Spieler",
    "PERMISSION.Configure": "Rechte anpassen",
    "PERMISSION.ConfigureHint": "Definiere welche Aktionen Nutzern unterschiedlicher Rollen erlaubt sind.",
    "PERMISSION.Title": "Rechte Konfiguration",
    "PERMISSION.Instructions": "Bestimme welche Nutzerrolle das Recht hat welche Aktion durchzuführen. Manche Aktionen können für den Spielleiter nicht deaktiviert werden. Manche Änderungen werden erst nach einem Neustart des Spiels angewendet.",
    "PERMISSION.Permission": "Recht",
    "PERMISSION.Permissions": "Nutzerrollen-Rechte",
    "PERMISSION.Reset": "Auf Voreinstellung zurücksetzen",
    "PERMISSION.Submit": "Konfiguration speichern",
    "PERMISSION.BroadcastAudio": "Erlaube Audioübertragung",
    "PERMISSION.BroadcastAudioHint": "Erlaube Nutzern mit dieser Rolle Audio zu übertragen, wenn die A/V-Chat-Integration genutzt wird.",
    "PERMISSION.BroadcastVideo": "Erlaube Videoübertragung",
    "PERMISSION.BroadcastVideoHint": "Erlaube Nutzern mit dieser Rolle Video zu übertragen, wenn die A/V-Chat-Integration genutzt wird.",
    "PERMISSION.ActorCreate": "Neue Charaktere erstellen",
    "PERMISSION.ActorCreateHint": "Erlaube Nutzern mit dieser Rolle neue Charaktere in der Welt zu erzeugen.",
    "PERMISSION.DrawingCreate": "Zeichenwerkzeuge benutzen",
    "PERMISSION.DrawingCreateHint": "Erlaube Nutzern mit dieser Rolle Zeichnungen mit den Zeichenwerkzeugen zu erstellen.",
    "PERMISSION.ItemCreate": "Neue Gegenstände erstellen",
    "PERMISSION.ItemCreateHint": "Erlaube Nutzern mit dieser Rolle neue Gegenstände in der Welt zu erzeugen.",
    "PERMISSION.FilesBrowse": "Dateien durchsuchen",
    "PERMISSION.FilesBrowseHint": "Erlaube Nutzern mit dieser Rolle den Dateimanager zum Suchen von Dateien zu verwenden.",
    "PERMISSION.FilesUpload": "Neue Dateien hochladen",
    "PERMISSION.FilesUploadHint": "Erlaube Nutzern mit dieser Rolle den Dateimanager zum Hochladen neuer Dateien zu verwenden.",
    "PERMISSION.MacroScript": "Script-Makros benutzen",
    "PERMISSION.MacroScriptHint": "Erlaube Nutzern mit dieser Rolle JavaScript-Makros auszuführen, welche auf die API zugreifen.",
    "PERMISSION.MessageWhisper": "Private Nachrichten flüstern",
    "PERMISSION.MessageWhisperHint": "Erlaube Nutzern mit dieser Rolle private Nachrichten zu flüstern, welche der SL nicht sehen kann.",
    "PERMISSION.SettingsModify": "Spieleinstellungen ändern",
    "PERMISSION.SettingsModifyHint": "Erlaube Nutzern mit dieser Rolle die Spieleinstellungen zu ändern und Module ein-/auszuschalten.",
    "PERMISSION.ShowCursor": "Mauszeiger anzeigen",
    "PERMISSION.ShowCursorHint": "Zeige den Mauszeiger des Nutzers um zu sehen wo dieser hinschaut.",
    "PERMISSION.TemplateCreate": "Messschablonen erstellen",
    "PERMISSION.TemplateCreateHint": "Erlaube Nutzern mit dieser Rolle Schablonen für Wirkungsbereiche zu erstellen.",
    "PERMISSION.TokenCreate": "Neue Figuren erstellen",
    "PERMISSION.TokenCreateHint": "Erlaube Nutzern mit dieser Rolle Figuren von eigenen Charakteren in der Szene zu platzieren.",
    "PERMISSION.TokenConfigure": "Figur-Einstellungen ändern",
    "PERMISSION.TokenConfigureHint": "Erlaube Nutzern mit dieser Rolle die Einstellungen von eigenen Figuren zu ändern.",
    "PERMISSION.WallDoors": "Türen öffnen und schliessen",
    "PERMISSION.WallDoorsHint": "Erlaube Nutzern mit dieser Rolle mit Türen zu interagieren, welche auf der Wand-Ebene definiert wurden.",

    "SIDEBAR.Import": "Daten importieren",
    "SIDEBAR.Permissions": "Berechtigung einrichten",
    "SIDEBAR.SceneActivate": "Szene aktivieren",
    "SIDEBAR.SceneConfig": "Szene konfigurieren",
    "SIDEBAR.SceneCreate": "Szene erstellen",
    "SIDEBAR.SceneNav": "In Navigation anzeigen",
    "SIDEBAR.SceneNotes": "Szenen-Notizen",
    "SIDEBAR.SceneSearch": "Szenen durchsuchen",
    "SIDEBAR.TabChat": "Chat-Protokoll",
    "SIDEBAR.TabCombat": "Kampf-Tracker",
    "SIDEBAR.TabScenes": "Szenenverzeichnis",
    "SIDEBAR.TabActors": "Charakterverzeichnis",
    "SIDEBAR.TabItems": "Gegenstandsverzeichnis",
    "SIDEBAR.TabJournal": "Notizbucheinträge",
    "SIDEBAR.TabPlaylists": "Audio-Wiedergabelisten",
    "SIDEBAR.TabCompendium": "Kompendium-Pakete",
    "SIDEBAR.TabSettings": "Spieleinstellungen",
    "SIDEBAR.TabTables": "Würfeltabellen",
    "SIDEBAR.TokenArt": "Bild der Figur anzeigen",
    "SIDEBAR.JumpPin": "Zu Pin springen",

    "TABLE.AnimateSetting": "Würfeltabellen animieren?",
    "TABLE.AnimateSettingHint": "Stelle ein, ob eine Roulette-Animation angezeigt wird, wenn aus einer Würfeltabelle gezogen wird.",
    "TABLE.Create": "Tabelle erstellen",
    "TABLE.Description": "Tabellen-Beschreibung",
    "TABLE.DisplayRoll": "Wurf im Chat anzeigen?",
    "TABLE.Formula": "Formel",
    "TABLE.Search": "Tabelle durchsuchen",
    "TABLE.SheetTitle": "Würfeltabellen-Einstellungen",
    "TABLE.Normalize": "Ergebnisgewichtung normalisieren",
    "TABLE.Replacement": "Ziehen mit Zurücklegen?",
    "TABLE.Reset": "Zurücksetzen",
    "TABLE.ResultCreate": "Neues Ergebnis hinzufügen",
    "TABLE.ResultType": "Ergebnistyp",
    "TABLE.ResultDetails": "Ergebnisdetails",
    "TABLE.ResultDelete": "Ergebnis löschen",
    "TABLE.ResultWeight": "Gewicht",
    "TABLE.ResultRange": "Bereich",
    "TABLE.Roll": "Wurf",
    "TABLE.ToggleDrawn": "Gezogen-Status umschalten",
    "TABLE.Update": "Aktualisieren",

    "TEMPLATE.ConeTypeSetting": "Kegel-Schablonen-Typ",
    "TEMPLATE.ConeTypeSettingHint": "Wähle wie der Wirkungsbereich der Kegel-Schablone definiert wird.",
    "TEMPLATE.ConeTypeFlat": "Flach",
    "TEMPLATE.ConeTypeRound": "Rund",

    "TOKEN.Assign": "Figur zuweisen",
    "TOKEN.BarAttributes": "Attribut-Leisten",
    "TOKEN.BarValues": "Einzelne Werte",
    "TOKEN.CharActor": "Repräsentierter Charakter",
    "TOKEN.CharDisposition": "Disposition",
    "TOKEN.CharInstructions": "Stelle ein, welcher Charakter dieser Figur zugeordnet ist.",
    "TOKEN.CharLink": "Mit Charakter verbinden",
    "TOKEN.CharNameplate": "Name",
    "TOKEN.CharShowNameplate": "Namen anzeigen",
    "TOKEN.ImageAlts": "Alternative Charakter-Figuren",
    "TOKEN.ImageInstructions": "Stelle das Bild der Figur und dessen Anzeigegröße ein.",
    "TOKEN.ImagePath": "Bildpfad",
    "TOKEN.MirrorX": "Bild horizontal spiegeln",
    "TOKEN.MirrorY": "Bild vertikal spiegeln",
    "TOKEN.PositionInstructions": "Stelle die Position, Ausrichtung und Höhe der Figur ein.",
    "TOKEN.PositionLock": "Rotation sperren",
    "TOKEN.RandomImg": "Zufälliges Bild aus Platzhalter",
    "TOKEN.ResourceInstructions": "Stelle die Ressourcen-Leisten ein, welche für die Figur verfolgt werden.",
    "TOKEN.ResourceBar1A": "Leiste 1 Attribut",
    "TOKEN.ResourceBar1D": "Leiste 1 Daten",
    "TOKEN.ResourceBar2A": "Leiste 2 Attribut",
    "TOKEN.ResourceBar2D": "Leiste 2 Daten",
    "TOKEN.ResourceDisplay": "Leisten anzeigen",
    "TOKEN.Title": "Figur Einstellungen",
    "TOKEN.TitlePrototype": "Prototyp-Figur",
    "TOKEN.Update": "Figur aktualisieren",
    "TOKEN.VisionInstructions": "Stelle die Sicht und Lichtabgabe dieser Figur ein.",
    "TOKEN.VisionHas": "Hat Sicht",
    "TOKEN.VisionBrightDist": "Helle Sicht",
    "TOKEN.VisionBrightEmit": "Helles Licht",
    "TOKEN.VisionDimDist": "Dämmersicht",
    "TOKEN.VisionDimEmit": "Dämmriges Licht",
    "TOKEN.VisionLightAngle": "Abgabewinkel",
    "TOKEN.VisionSightAngle": "Sichtwinkel",
    "TOKEN.HOSTILE": "Feindlich",
    "TOKEN.NEUTRAL": "Neutral",
    "TOKEN.FRIENDLY": "Freundlich",

    "USER.RoleNone": "Nichts",
    "USER.RolePlayer": "Spieler",
    "USER.RoleTrusted": "seriöser Spieler",
    "USER.RoleAssistant": "SL Assistent",
    "USER.RoleGamemaster": "Spielleiter",

    "WALLS.Title": "Wand-Konfiguration",
    "WALLS.TitleMany": "Wand-Konfiguration [mehrere]",
    "WALLS.Instructions": "Passe an, wie dieses Wand-Segment Bewegung oder Sinne einschränkt.",
    "WALLS.Coordinates": "Wand-Koordinaten",
    "WALLS.Movement": "Bewegungsbeschränkung",
    "WALLS.Senses": "Wahrnhemungsbeschränkung",
    "WALLS.Direction": "Wand-Richtung",
    "WALLS.Door": "Ist Tür?",
    "WALLS.DoorState": "Tür-Zustand",
    "WALLS.Submit": "Wand aktualisieren",

    "WORLD.DetailTab": "Welt-Details",
    "WORLD.DescTab": "Welt-Beschreibung",

    "WEBRTC.Title" : "Audio/Video Konfiguration",
    "WEBRTC.UnknownDevice" : "<Unbekanntes Gerät>",
    "WEBRTC.VideoDevice" : "Video-Aufnahmegerät",
    "WEBRTC.VideoDeviceNotes" : "Wähle ob und welches Video-Aufnahmegerät du nutzen möchtest.",
    "WEBRTC.AudioDevice" : "Audio-Aufnahmegerät",
    "WEBRTC.AudioDeviceNotes" : "Wähle ob und welches Audio-Aufnahmegerät du nutzen möchtest.",
    "WEBRTC.AudioOutput" : "Audio-Ausgabegerät",
    "WEBRTC.AudioOutputNotes" : "Wähle welches Audio-Ausgabegerät du nutzen willst.",
    "WEBRTC.DisableVideoSource" : "Keine Videoaufnahme",
    "WEBRTC.DisableAudioSource" : "Keine Audioaufnahme",
    "WEBRTC.DisableAudioOutput" : "Keine Audioausgabe",
    "WEBRTC.DefaultSource" : "Standardgerät",
    "WEBRTC.UnavailableDevice" : "Nichtverfügbares Gerät (verwendet Standard)",
    "WEBRTC.WebRTCServer" : "Wähle den Signalisierungs-Server",
    "WEBRTC.WebRTCServerURL" : "Signalisierungs-Server URL",
    "WEBRTC.FVTTSignalingServer" : "Foundry VTT",
    "WEBRTC.CustomSignalingServer" : "Eigener Server",
    "WEBRTC.WebRTCServerUsername" : "Signalisierungs-Server Nutzername",
    "WEBRTC.WebRTCServerPassword" : "Signalisierungs-Server Passwort",
    "WEBRTC.WebRTCTurnServer" : "Relaisserver",
    "WEBRTC.TURNServerProvisioned" : "Von Signalisierungs-Server bereitgestellt",
    "WEBRTC.CustomTURNServer" : "Eigener Relaisserver",
    "WEBRTC.WebRTCTURNURL" : "Relaisserver URL",
    "WEBRTC.WebRTCTurnUsername" : "Relaisserver Nutzername",
    "WEBRTC.WebRTCTurnPassword" : "Relaisserver Passwort",
    "WEBRTC.GeneralTab" : "Allgemein",
    "WEBRTC.DevicesTab" : "Geräte",
    "WEBRTC.ServerTab" : "Server",
    "WEBRTC.GeneralTabNotGM" : "Allgemeine Audio/Video-Konferenzeinstellungen können nur vom SL geändert werden",
    "WEBRTC.AVMode" : "Audio/Video-Konferenzmodus",
    "WEBRTC.AVModeNotes" : "Nur ein SL darf diese Einstellung ändern. Es wird ein Neustart von Foundry VTT benötigt.",
    "WEBRTC.WebrtcModeDisabled" : "Deaktiviert",
    "WEBRTC.WebrtcModeAudioOnly" : "Nur Audio",
    "WEBRTC.WebrtcModeVideoOnly" : "Nur Video",
    "WEBRTC.WebrtcModeAudioVideo" : "Audio/Video aktiviert",
    "WEBRTC.TooltipToggleVideo" : "Video umschalten",
    "WEBRTC.TooltipConfigure" : "Einstellungen ändern",
    "WEBRTC.TooltipDock" : "Send to Dock",
    "WEBRTC.TooltipPopout" : "Pop out",
    "WEBRTC.PTTKey": "Push-to-Talk-/​Stummschaltungs-Taste",
    "WEBRTC.PTTKeyNotes": "Weise eine Taste zu, welche im PTT-Modus die Audioübertragung aktiviert, solange sie gehalten wird. Mit deaktivertem PTT-Modus schaltet dieselbe Taste stumm, solange sie gedrückt wird.",
    "WEBRTC.VoiceMode": "Stimmübertragungsmodus",
    "WEBRTC.VoiceModeNotes": "Wähle wie deine Stimme bei A/V-Chats übertragen wird.",
    "WEBRTC.VoiceAlways": "Immer aktiv",
    "WEBRTC.VoiceActivity": "Sprachaktivierung",
    "WEBRTC.VoicePTT": "Push-to-Talk",

    "WEBRTC.TooltipAllowUserVideo" : "Erlaube Video",
    "WEBRTC.TooltipBlockUserVideo" : "Blockiere Video",
    "WEBRTC.TooltipAllowUserAudio" : "Erlaube Audio",
    "WEBRTC.TooltipBlockUserAudio" : "Blockiere Audio",
    "WEBRTC.TooltipEnableMyVideo" : "Aktivere Video",
    "WEBRTC.TooltipDisableMyVideo" : "Deaktiviere Video",
    "WEBRTC.TooltipEnableMyAudio" : "Aktiviere Audio",
    "WEBRTC.TooltipDisableMyAudio" : "Deaktiviere Audio",
    "WEBRTC.TooltipMutePeers" : "Audio anderer stumm schalten",
    "WEBRTC.TooltipUnmutePeers" : "Audio anderer nicht stumm schalten",

    "WEBRTC.TooltipHidePlayers" : "Verstecke Spielerliste",
    "WEBRTC.TooltipChangeSize" : "Wechsle Videogröße",
    "WEBRTC.CaptureWarningVideo" : "Die Audioaufnahme funktioniert nicht; Sende nur Video",
    "WEBRTC.CaptureWarningAudio" : "Die Videoaufnahme funktioniert nicht; Sende nur Audio",
    "WEBRTC.CaptureErrorAudioVideo" : "Weder Audio- noch Videoaufnahme funktioniert",
    "WEBRTC.CaptureErrorVideo" : "Die Videoaufnahme funktioniert nicht",
    "WEBRTC.CaptureErrorAudio" : "Weder Audio- noch Videoaufnahme funktioniert",
    "WEBRTC.ConnectError" : "Fehler bei der Verbindung zum A/V-Signalisierungs-Server",
    "WEBRTC.ConnectionLostWarning" : "Verbindung zum A/V-Signalisierungs-Server verloren. Es wird versucht die Verbindung erneut aufzubauen.",
    "WEBRTC.GenericError" : "WebRTC Fehler : ",
    "WEBRTC.NoSSLError": "Du kannst keine Audio/Video-Konferenzen tätigen, sofern dein Foundry VTT Server nicht SSL-Zertifikate verwendet. Instruktionen findest du in der Online-Dokumentation."
}
